module gitlab.com/1nkh3art1/goods-reservation-service

go 1.20

require (
	github.com/docker/go-connections v0.4.0
	github.com/go-chi/chi/v5 v5.0.8
	github.com/golang-migrate/migrate/v4 v4.15.2
	github.com/google/uuid v1.3.0
	github.com/ilyakaznacheev/cleanenv v1.4.2
	github.com/jackc/pgconn v1.14.0
	github.com/jackc/pgx/v4 v4.18.0
	github.com/osamingo/jsonrpc/v2 v2.4.2
	github.com/pkg/errors v0.9.1
	github.com/stretchr/testify v1.8.1
	github.com/testcontainers/testcontainers-go v0.18.0
	go.uber.org/zap v1.24.0
)

require (
	github.com/Azure/go-ansiterm v0.0.0-20210617225240-d185dfc1b5a1 // indirect
	github.com/BurntSushi/toml v1.1.0 // indirect
	github.com/Microsoft/go-winio v0.5.2 // indirect
	github.com/cenkalti/backoff/v4 v4.2.0 // indirect
	github.com/containerd/containerd v1.6.17 // indirect
	github.com/davecgh/go-spew v1.1.1 // indirect
	github.com/docker/distribution v2.8.1+incompatible // indirect
	github.com/docker/docker v23.0.0+incompatible // indirect
	github.com/docker/go-units v0.5.0 // indirect
	github.com/goccy/go-json v0.9.11 // indirect
	github.com/gogo/protobuf v1.3.2 // indirect
	github.com/golang/protobuf v1.5.2 // indirect
	github.com/hashicorp/errwrap v1.1.0 // indirect
	github.com/hashicorp/go-multierror v1.1.1 // indirect
	github.com/iancoleman/orderedmap v0.1.0 // indirect
	github.com/invopop/jsonschema v0.6.0 // indirect
	github.com/jackc/chunkreader/v2 v2.0.1 // indirect
	github.com/jackc/pgerrcode v0.0.0-20201024163028-a0d42d470451 // indirect
	github.com/jackc/pgio v1.0.0 // indirect
	github.com/jackc/pgpassfile v1.0.0 // indirect
	github.com/jackc/pgproto3/v2 v2.3.2 // indirect
	github.com/jackc/pgservicefile v0.0.0-20221227161230-091c0ba34f0a // indirect
	github.com/jackc/pgtype v1.14.0 // indirect
	github.com/jackc/puddle v1.3.0 // indirect
	github.com/joho/godotenv v1.4.0 // indirect
	github.com/klauspost/compress v1.13.6 // indirect
	github.com/magiconair/properties v1.8.7 // indirect
	github.com/moby/patternmatcher v0.5.0 // indirect
	github.com/moby/sys/sequential v0.5.0 // indirect
	github.com/moby/term v0.0.0-20221128092401-c43b287e0e0f // indirect
	github.com/morikuni/aec v1.0.0 // indirect
	github.com/opencontainers/go-digest v1.0.0 // indirect
	github.com/opencontainers/image-spec v1.1.0-rc2 // indirect
	github.com/opencontainers/runc v1.1.3 // indirect
	github.com/pmezard/go-difflib v1.0.0 // indirect
	github.com/sirupsen/logrus v1.9.0 // indirect
	github.com/stretchr/objx v0.5.0 // indirect
	go.uber.org/atomic v1.7.0 // indirect
	go.uber.org/multierr v1.6.0 // indirect
	golang.org/x/crypto v0.6.0 // indirect
	golang.org/x/net v0.6.0 // indirect
	golang.org/x/sys v0.5.0 // indirect
	golang.org/x/text v0.7.0 // indirect
	google.golang.org/genproto v0.0.0-20220617124728-180714bec0ad // indirect
	google.golang.org/grpc v1.47.0 // indirect
	google.golang.org/protobuf v1.28.0 // indirect
	gopkg.in/yaml.v3 v3.0.1 // indirect
	olympos.io/encoding/edn v0.0.0-20201019073823-d3554ca0b0a3 // indirect
)
